%YAML 1.1
%TAG !u! tag:unity3d.com,2011:
--- !u!1 &7836826106363935127
GameObject:
  m_ObjectHideFlags: 0
  m_CorrespondingSourceObject: {fileID: 0}
  m_PrefabInstance: {fileID: 0}
  m_PrefabAsset: {fileID: 0}
  serializedVersion: 6
  m_Component:
  - component: {fileID: 7836826106363935124}
  m_Layer: 0
  m_Name: LUD_02
  m_TagString: Untagged
  m_Icon: {fileID: 0}
  m_NavMeshLayer: 0
  m_StaticEditorFlags: 0
  m_IsActive: 1
--- !u!4 &7836826106363935124
Transform:
  m_ObjectHideFlags: 0
  m_CorrespondingSourceObject: {fileID: 0}
  m_PrefabInstance: {fileID: 0}
  m_PrefabAsset: {fileID: 0}
  m_GameObject: {fileID: 7836826106363935127}
  m_LocalRotation: {x: 0, y: 0, z: 0, w: 1}
  m_LocalPosition: {x: 0, y: -10.65, z: 0}
  m_LocalScale: {x: 1, y: 1, z: 1}
  m_Children:
  - {fileID: 8613034163886062391}
  m_Father: {fileID: 0}
  m_RootOrder: 0
  m_LocalEulerAnglesHint: {x: 0, y: 0, z: 0}
--- !u!65 &4625034377840900009
BoxCollider:
  m_ObjectHideFlags: 0
  m_CorrespondingSourceObject: {fileID: 0}
  m_PrefabInstance: {fileID: 0}
  m_PrefabAsset: {fileID: 0}
  m_GameObject: {fileID: 8992690497290707341}
  m_Material: {fileID: 0}
  m_IsTrigger: 0
  m_Enabled: 1
  serializedVersion: 2
  m_Size: {x: 1.5835311, y: 1.3712271, z: 0.4232707}
  m_Center: {x: 0, y: -0.00000001834825, z: 0.2116349}
--- !u!1001 &2736451387439904646
PrefabInstance:
  m_ObjectHideFlags: 0
  serializedVersion: 2
  m_Modification:
    m_TransformParent: {fileID: 7836826106363935124}
    m_Modifications:
    - target: {fileID: 5944312776913685681, guid: d0b95a6c732fc984082755ef8f66ffaf, type: 3}
      propertyPath: m_RootOrder
      value: 0
      objectReference: {fileID: 0}
    - target: {fileID: 5944312776913685681, guid: d0b95a6c732fc984082755ef8f66ffaf, type: 3}
      propertyPath: m_LocalScale.x
      value: 7.2
      objectReference: {fileID: 0}
    - target: {fileID: 5944312776913685681, guid: d0b95a6c732fc984082755ef8f66ffaf, type: 3}
      propertyPath: m_LocalScale.y
      value: 11
      objectReference: {fileID: 0}
    - target: {fileID: 5944312776913685681, guid: d0b95a6c732fc984082755ef8f66ffaf, type: 3}
      propertyPath: m_LocalScale.z
      value: 4
      objectReference: {fileID: 0}
    - target: {fileID: 5944312776913685681, guid: d0b95a6c732fc984082755ef8f66ffaf, type: 3}
      propertyPath: m_LocalPosition.x
      value: 11.64
      objectReference: {fileID: 0}
    - target: {fileID: 5944312776913685681, guid: d0b95a6c732fc984082755ef8f66ffaf, type: 3}
      propertyPath: m_LocalPosition.y
      value: -27.3
      objectReference: {fileID: 0}
    - target: {fileID: 5944312776913685681, guid: d0b95a6c732fc984082755ef8f66ffaf, type: 3}
      propertyPath: m_LocalPosition.z
      value: -2.39
      objectReference: {fileID: 0}
    - target: {fileID: 5944312776913685681, guid: d0b95a6c732fc984082755ef8f66ffaf, type: 3}
      propertyPath: m_LocalRotation.w
      value: 0
      objectReference: {fileID: 0}
    - target: {fileID: 5944312776913685681, guid: d0b95a6c732fc984082755ef8f66ffaf, type: 3}
      propertyPath: m_LocalRotation.x
      value: 0
      objectReference: {fileID: 0}
    - target: {fileID: 5944312776913685681, guid: d0b95a6c732fc984082755ef8f66ffaf, type: 3}
      propertyPath: m_LocalRotation.y
      value: 0.7071068
      objectReference: {fileID: 0}
    - target: {fileID: 5944312776913685681, guid: d0b95a6c732fc984082755ef8f66ffaf, type: 3}
      propertyPath: m_LocalRotation.z
      value: 0.7071068
      objectReference: {fileID: 0}
    - target: {fileID: 5944312776913685681, guid: d0b95a6c732fc984082755ef8f66ffaf, type: 3}
      propertyPath: m_LocalEulerAnglesHint.x
      value: -90
      objectReference: {fileID: 0}
    - target: {fileID: 5944312776913685681, guid: d0b95a6c732fc984082755ef8f66ffaf, type: 3}
      propertyPath: m_LocalEulerAnglesHint.y
      value: 0
      objectReference: {fileID: 0}
    - target: {fileID: 5944312776913685681, guid: d0b95a6c732fc984082755ef8f66ffaf, type: 3}
      propertyPath: m_LocalEulerAnglesHint.z
      value: 180
      objectReference: {fileID: 0}
    - target: {fileID: 6428220332077864459, guid: d0b95a6c732fc984082755ef8f66ffaf, type: 3}
      propertyPath: m_Name
      value: SM_Coussin
      objectReference: {fileID: 0}
    m_RemovedComponents: []
  m_SourcePrefab: {fileID: 100100000, guid: d0b95a6c732fc984082755ef8f66ffaf, type: 3}
--- !u!1 &8992690497290707341 stripped
GameObject:
  m_CorrespondingSourceObject: {fileID: 6428220332077864459, guid: d0b95a6c732fc984082755ef8f66ffaf, type: 3}
  m_PrefabInstance: {fileID: 2736451387439904646}
  m_PrefabAsset: {fileID: 0}
--- !u!4 &8613034163886062391 stripped
Transform:
  m_CorrespondingSourceObject: {fileID: 5944312776913685681, guid: d0b95a6c732fc984082755ef8f66ffaf, type: 3}
  m_PrefabInstance: {fileID: 2736451387439904646}
  m_PrefabAsset: {fileID: 0}
